{"_id":{"$oid":"5ff04582850a8d2ce5477c94"},"code":"JHR04","location":"Batu Pahat, Muar, Segamat, Gemas Johor","state":"Johor","country":"Malaysia"}
{"_id":{"$oid":"5ff04582850a8d2ce5477c95"},"code":"KDH02","location":"Kuala Muda, Yan, Pendang","state":"Kedah","country":"Malaysia"}
{"_id":{"$oid":"5ff04582850a8d2ce5477c96"},"code":"KDH01","location":"Kota Setar, Kubang Pasu, Pokok Sena (Daerah Kecil)","state":"Kedah","country":"Malaysia"}
{"_id":{"$oid":"5ff04582850a8d2ce5477c97"},"code":"KDH05","location":"Bandar Baharu, Kulim","state":"Kedah","country":"Malaysia"}
{"_id":{"$oid":"5ff04582850a8d2ce5477c98"},"code":"KDH07","location":"Puncak Gunung Jerai","state":"Kedah","country":"Malaysia"}
{"_id":{"$oid":"5ff04582850a8d2ce5477c99"},"code":"KDH03","location":"Padang Terap, Sik","state":"Kedah","country":"Malaysia"}
{"_id":{"$oid":"5ff04582850a8d2ce5477c9a"},"code":"KTN03","location":"Gua Musang (Daerah Galas Dan Bertam), Jeli, Jajahan Kecil Lojing","state":"Kelantan","country":"Malaysia"}
{"_id":{"$oid":"5ff04582850a8d2ce5477c9b"},"code":"MLK01","location":"SELURUH NEGERI MELAKA","state":"Melaka","country":"Malaysia"}
{"_id":{"$oid":"5ff04582850a8d2ce5477c9c"},"code":"NGS01","location":"Tampin, Jempol","state":"Negeri Sembilan","country":"Malaysia"}
{"_id":{"$oid":"5ff04582850a8d2ce5477c9d"},"code":"JHR01","location":"Pulau Aur dan Pulau Pemanggil ","state":"Johor","country":"Malaysia"}
{"_id":{"$oid":"5ff04582850a8d2ce5477c9e"},"code":"NGS02","location":"Jelebu, Kuala Pilah, Port Dickson, Rembau, Seremban","state":"Negeri Sembilan","country":"Malaysia"}
{"_id":{"$oid":"5ff04582850a8d2ce5477c9f"},"code":"PHG01","location":"Pulau Tioman","state":"Pahang","country":"Malaysia"}
{"_id":{"$oid":"5ff04582850a8d2ce5477ca0"},"code":"PHG02","location":"Kuantan, Pekan, Rompin, Muadzam Shah","state":"Pahang","country":"Malaysia"}
{"_id":{"$oid":"5ff04582850a8d2ce5477ca1"},"code":"PHG03","location":"Jerantut, Temerloh, Maran, Bera, Chenor, Jengka","state":"Pahang","country":"Malaysia"}
{"_id":{"$oid":"5ff04582850a8d2ce5477ca2"},"code":"PHG04","location":"Bentong, Lipis, Raub","state":"Pahang","country":"Malaysia"}
{"_id":{"$oid":"5ff04582850a8d2ce5477ca3"},"code":"KDH06","location":"Langkawi","state":"Kedah","country":"Malaysia"}
{"_id":{"$oid":"5ff04582850a8d2ce5477ca4"},"code":"PLS01","location":"Kangar, Padang Besar, Arau","state":"Perlis","country":"Malaysia"}
{"_id":{"$oid":"5ff04582850a8d2ce5477ca5"},"code":"PNG01","location":"Seluruh Negeri Pulau Pinang","state":"Pulau Pinang","country":"Malaysia"}
{"_id":{"$oid":"5ff04582850a8d2ce5477ca6"},"code":"PHG05","location":"Genting Sempah, Janda Baik, Bukit Tinggi","state":"Pahang","country":"Malaysia"}
{"_id":{"$oid":"5ff04582850a8d2ce5477ca7"},"code":"PHG06","location":"Cameron Highlands, Genting Higlands, Bukit Fraser","state":"Pahang","country":"Malaysia"}
{"_id":{"$oid":"5ff04582850a8d2ce5477ca8"},"code":"KDH04","location":"Baling","state":"Kedah","country":"Malaysia"}
{"_id":{"$oid":"5ff04582850a8d2ce5477ca9"},"code":"JHR03","location":"Kluang, Pontian","state":"Johor","country":"Malaysia"}
{"_id":{"$oid":"5ff04582850a8d2ce5477caa"},"code":"KTN01","location":"Bachok, Kota Bharu, Machang, Pasir Mas, Pasir Puteh, Tanah Merah, Tumpat, Kuala Krai, Mukim Chiku","state":"Kelantan","country":"Malaysia"}
{"_id":{"$oid":"5ff04582850a8d2ce5477cab"},"code":"PRK01","location":"Tapah, Slim River, Tanjung Malim","state":"Perak","country":"Malaysia"}
{"_id":{"$oid":"5ff04582850a8d2ce5477cac"},"code":"JHR02","location":"Johor Bahru, Kota Tinggi, Mersing","state":"Johor","country":"Malaysia"}
{"_id":{"$oid":"5ff04582850a8d2ce5477cad"},"code":"PRK03","location":"Lenggong, Pengkalan Hulu, Grik","state":"Perak","country":"Malaysia"}
{"_id":{"$oid":"5ff04582850a8d2ce5477cae"},"code":"PRK04","location":"Temengor, Belum","state":"Perak","country":"Malaysia"}
{"_id":{"$oid":"5ff04582850a8d2ce5477caf"},"code":"PRK02","location":"Kuala Kangsar, Sg. Siput , Ipoh, Batu Gajah, Kampar","state":"Perak","country":"Malaysia"}
{"_id":{"$oid":"5ff04582850a8d2ce5477cb0"},"code":"PRK07","location":"Bukit Larut","state":"Perak","country":"Malaysia"}
{"_id":{"$oid":"5ff04582850a8d2ce5477cb1"},"code":"PRK06","location":"Selama, Taiping, Bagan Serai, Parit Buntar","state":"Perak","country":"Malaysia"}
{"_id":{"$oid":"5ff04582850a8d2ce5477cb2"},"code":"SBH01","location":"Bahagian Sandakan (Timur), Bukit Garam, Semawang, Temanggong, Tambisan, Bandar Sandakan, Sukau","state":"Sabah","country":"Malaysia"}
{"_id":{"$oid":"5ff04582850a8d2ce5477cb3"},"code":"SBH02","location":"Beluran, Telupid, Pinangah, Terusan, Kuamut, Bahagian Sandakan (Barat)","state":"Sabah","country":"Malaysia"}
{"_id":{"$oid":"5ff04582850a8d2ce5477cb4"},"code":"PRK05","location":"Kg Gajah, Teluk Intan, Bagan Datuk, Seri Iskandar, Beruas, Parit, Lumut, Sitiawan, Pulau Pangkor","state":"Perak","country":"Malaysia"}
{"_id":{"$oid":"5ff04582850a8d2ce5477cb5"},"code":"SBH04","location":"Bandar Tawau, Balong, Merotai, Kalabakan, Bahagian Tawau (Barat)","state":"Sabah","country":"Malaysia"}
{"_id":{"$oid":"5ff04582850a8d2ce5477cb6"},"code":"SBH03","location":"Lahad Datu, Silabukan, Kunak, Sahabat, Semporna, Tungku, Bahagian Tawau  (Timur)","state":"Sabah","country":"Malaysia"}
{"_id":{"$oid":"5ff04582850a8d2ce5477cb7"},"code":"SBH06","location":"Gunung Kinabalu","state":"Sabah","country":"Malaysia"}
{"_id":{"$oid":"5ff04582850a8d2ce5477cb8"},"code":"SGR02","location":"Kuala Selangor, Sabak Bernam","state":"Selangor","country":"Malaysia"}
{"_id":{"$oid":"5ff04582850a8d2ce5477cb9"},"code":"SGR01","location":"Gombak, Petaling, Sepang, Hulu Langat, Hulu Selangor, S.Alam","state":"Selangor","country":"Malaysia"}
{"_id":{"$oid":"5ff04582850a8d2ce5477cba"},"code":"SWK01","location":"Limbang, Lawas, Sundar, Trusan","state":"Sarawak","country":"Malaysia"}
{"_id":{"$oid":"5ff04582850a8d2ce5477cbb"},"code":"SGR03","location":"Klang, Kuala Langat","state":"Selangor","country":"Malaysia"}
{"_id":{"$oid":"5ff04582850a8d2ce5477cbc"},"code":"SWK02","location":"Miri, Niah, Bekenu, Sibuti, Marudi","state":"Sarawak","country":"Malaysia"}
{"_id":{"$oid":"5ff04582850a8d2ce5477cbd"},"code":"SWK04","location":"Sibu, Mukah, Dalat, Song, Igan, Oya, Balingian, Kanowit, Kapit","state":"Sarawak","country":"Malaysia"}
{"_id":{"$oid":"5ff04582850a8d2ce5477cbe"},"code":"SWK03","location":"Pandan, Belaga, Suai, Tatau, Sebauh, Bintulu","state":"Sarawak","country":"Malaysia"}
{"_id":{"$oid":"5ff04582850a8d2ce5477cbf"},"code":"SWK05","location":"Sarikei, Matu, Julau, Rajang, Daro, Bintangor, Belawai","state":"Sarawak","country":"Malaysia"}
{"_id":{"$oid":"5ff04582850a8d2ce5477cc0"},"code":"SWK07","location":"Serian, Simunjan, Samarahan, Sebuyau, Meludam","state":"Sarawak","country":"Malaysia"}
{"_id":{"$oid":"5ff04582850a8d2ce5477cc1"},"code":"SWK06","location":"Lubok Antu, Sri Aman, Roban, Debak, Kabong, Lingga, Engkelili, Betong, Spaoh, Pusa, Saratok","state":"Sarawak","country":"Malaysia"}
{"_id":{"$oid":"5ff04582850a8d2ce5477cc2"},"code":"SWK09","location":"Zon Khas (Kampung Patarikan)","state":"Sarawak","country":"Malaysia"}
{"_id":{"$oid":"5ff04582850a8d2ce5477cc3"},"code":"SBH09","location":"Beaufort, Kuala Penyu, Sipitang, Tenom, Long Pa Sia, Membakut, Weston, Bahagian Pendalaman (Bawah)","state":"Sabah","country":"Malaysia"}
{"_id":{"$oid":"5ff04582850a8d2ce5477cc4"},"code":"TRG02","location":"Besut, Setiu","state":"Terengganu","country":"Malaysia"}
{"_id":{"$oid":"5ff04582850a8d2ce5477cc5"},"code":"TRG01","location":"Kuala Terengganu, Marang, Kuala Nerus","state":"Terengganu","country":"Malaysia"}
{"_id":{"$oid":"5ff04582850a8d2ce5477cc6"},"code":"SBH07","location":"Kota Kinabalu, Ranau, Kota Belud, Tuaran, Penampang, Papar, Putatan, Bahagian Pantai Barat","state":"Sabah","country":"Malaysia"}
{"_id":{"$oid":"5ff04582850a8d2ce5477cc7"},"code":"TRG03","location":"Hulu Terengganu","state":"Terengganu","country":"Malaysia"}
{"_id":{"$oid":"5ff04582850a8d2ce5477cc8"},"code":"WLY01","location":"Kuala Lumpur, Putrajaya","state":"Wilayah Persekutuan Kuala Lumpur dan Putrajaya","country":"Malaysia"}
{"_id":{"$oid":"5ff04582850a8d2ce5477cc9"},"code":"TRG04","location":"Dungun, Kemaman","state":"Terengganu","country":"Malaysia"}
{"_id":{"$oid":"5ff04582850a8d2ce5477cca"},"code":"SBH05","location":"Kudat, Kota Marudu, Pitas, Pulau Banggi, Bahagian Kudat","state":"Sabah","country":"Malaysia"}
{"_id":{"$oid":"5ff04582850a8d2ce5477ccb"},"code":"SBH08","location":"Pensiangan, Keningau, Tambunan, Nabawan, Bahagian Pendalaman (Atas)","state":"Sabah","country":"Malaysia"}
{"_id":{"$oid":"5ff04582850a8d2ce5477ccc"},"code":"WLY02","location":"Labuan","state":"Wilayah Persekutuan Labuan","country":"Malaysia"}
{"_id":{"$oid":"5ff04582850a8d2ce5477ccd"},"code":"SWK08","location":"Kuching, Bau, Lundu, Sematan","state":"Sarawak","country":"Malaysia"}
